1,Alejandro,Ikringill,aikringill0@utexas.edu,Male,136.58.37.101
2,Ellette,Shurmer,eshurmer1@utexas.edu,Female,160.20.13.199
3,Nichole,Deyes,ndeyes2@webmd.com,Female,0.60.227.45
4,Osbourne,Allabush,oallabush3@apache.org,Male,211124145248
5,Lorilee,Eveleigh,leveleigh4@timesonline.co.uk,Female,49.113.137.1
6,Jamie,Dankov,jdankov5@smugmug.com,Male,32.165.176.48
7,Zelda,Dart,zdart6@moonfruit.com,Female,194.58.226.71
8,Rosemary,Schult,rschult7@sun.com,Female,189230168156
9,Fleur,Pickring,fpickring8@cdc.gov,Female,5.24.194.231
10,Everett,Konmann,ekonmann9@twitter.com,Male,129.110.86.161
11,Thomasina,Huggons,thuggonsa@cdbaby.com,Female,247.119.59.197
12,Marti,Baress,mbaressb@narod.ru,Female,170.127.89.176
13,Caressa,Lorrimer,clorrimerc@latimes.com,Female,172140238233
14,Maureen,Thursby,mthursbyd@uol.com.br,Female,218.183.15.170
15,Jareb,Walklate,jwalklatee@behance.net,Male,14.235.49.33
16,Wilmette,Antwis,wantwisf@google.com.br,Female,156127222200
17,Chrysa,Lawling,clawlingg@studiopress.com,Female,128113205176
18,Hildegaard,Clawson,hclawsonh@unesco.org,Female,112174190129
19,Othella,Roddick,oroddicki@europa.eu,Female,132.62.225.133
20,Darin,Duetsche,dduetschej@hibu.com,Male,98126204172
21,Elise,Gartery,egarteryk@yahoo.co.jp,Female,253.94.118.28
22,Gay,Sayward,gsaywardl@springer.com,Male,195.67.245.11
23,Cheston,Como,ccomom@wp.com,Male,12.180.197.60
24,Gerri,Jiles,gjilesn@gravatar.com,Male,97.92.91.129
25,Margette,Brymham,mbrymhamo@harvard.edu,Female,35.46.68.174
26,Nelle,Kayne,nkaynep@miibeian.gov.cn,Female,75.43.115.134
27,Nicolais,Shark,nsharkq@dmoz.org,Male,189141111160
28,Merry,Dyne,mdyner@tumblr.com,Female,190.219.7.102
29,Grace,Tie,gties@ucsd.edu,Male,27.152.9.198
30,Oby,Rivilis,orivilist@amazonaws.com,Male,216.134.22.59
31,Timmy,Briar,tbriaru@livejournal.com,Female,80.79.64.183
32,Heywood,McQuarter,hmcquarterv@livejournal.com,Male,143182135240
33,Dwayne,O'Rodane,dorodanew@admin.ch,Male,160.140.242.87
34,Lorain,Huddles,lhuddlesx@odnoklassniki.ru,Female,41.30.179.255
35,Powell,Izachik,pizachiky@skype.com,Male,170.24.214.98
36,Zachariah,McQuorkell,zmcquorkellz@si.edu,Male,52.225.5.172
37,Valencia,Eldered,veldered10@nba.com,Female,140144238193
38,Gilburt,McElree,gmcelree11@alexa.com,Male,203.45.201.214
39,Karlik,Stirley,kstirley12@sakura.ne.jp,Male,210.77.159.252
40,Beverley,Sizey,bsizey13@hhs.gov,Female,52.38.233.75
41,Josy,Britcher,jbritcher14@timesonline.co.uk,Female,199.25.82.248
42,Philippe,Sirett,psirett15@paypal.com,Female,205.9.70.215
43,Sunshine,Emmins,semmins16@weebly.com,Female,147.58.11.3
44,Maddy,Towler,mtowler17@hatena.ne.jp,Male,210.129.193.22
45,Shirlee,Real,sreal18@loc.gov,Female,9.56.98.199
46,Bordie,Border,bborder19@comsenz.com,Male,89.71.183.74
47,Thibaut,Parrington,tparrington1a@icq.com,Male,233.248.95.139
48,Gwendolin,Cholomin,gcholomin1b@tmall.com,Female,22.146.51.104
49,Vallie,Wilsdon,vwilsdon1c@wikipedia.org,Female,215.55.133.104
50,Stefano,Matresse,smatresse1d@cargocollective.com,Male,176167208241
51,Von,Offen,voffen1e@chicagotribune.com,Male,203.151.22.62
52,Nikoletta,Palle,npalle1f@woothemes.com,Female,166.17.176.178
53,Weidar,McLafferty,wmclafferty1g@umich.edu,Male,147229126174
54,Valentin,Rothera,vrothera1h@discuz.net,Male,232220248143
55,Flemming,Cicero,fcicero1i@studiopress.com,Male,85135156252
56,Alexander,Verrico,averrico1j@yahoo.co.jp,Male,146.36.215.155
57,Che,Mellmoth,cmellmoth1k@discovery.com,Male,135.170.78.118
58,Elsey,Coon,ecoon1l@yale.edu,Female,163149242192
59,Klement,Domenichini,kdomenichini1m@house.gov,Male,113.187.185.33
60,Berta,Witul,bwitul1n@si.edu,Female,71.44.39.85
61,Sheilakathryn,Stennard,sstennard1o@canalblog.com,Female,82.165.51.123
62,Jamal,Howsan,jhowsan1p@privacy.gov.au,Male,224.144.79.93
63,Dwayne,Pasque,dpasque1q@livejournal.com,Male,238.126.196.85
64,Whit,Settle,wsettle1r@huffingtonpost.com,Male,88.164.84.178
65,Dewain,Coneau,dconeau1s@examiner.com,Male,232.98.135.35
66,Merrilee,Gockeler,mgockeler1t@jimdo.com,Female,227.62.252.122
67,Jackie,Meneely,jmeneely1u@comsenz.com,Male,88210152121
68,Lindsy,Vettore,lvettore1v@alibaba.com,Female,123.94.197.223
69,Joshuah,Staveley,jstaveley1w@wp.com,Male,212245194247
70,Langston,Pirnie,lpirnie1x@mayoclinic.com,Male,97.147.14.248
71,Gillian,Comino,gcomino1y@i2i.jp,Female,210.4.197.16
72,Nevil,Kupka,nkupka1z@cbsnews.com,Male,25.191.34.194
73,Nichole,Franken,nfranken20@mayoclinic.com,Male,43118142217
74,Keen,McCormack,kmccormack21@fc2.com,Male,196.148.25.42
75,Catherin,Cato,ccato22@nydailynews.com,Female,25.53.10.103
76,Stearne,Rilings,srilings23@blogs.com,Male,75243104224
77,Haley,Bril,hbril24@dropbox.com,Male,184163186174
78,Antoni,Halsted,ahalsted25@fastcompany.com,Male,25.79.181.197
79,Prisca,Addionizio,paddionizio26@yolasite.com,Female,101234199242
80,Manda,Abrahams,mabrahams27@symantec.com,Female,214.212.205.71
81,Che,Esposito,cesposito28@unicef.org,Male,217.28.236.192
82,Fina,Faas,ffaas29@virginia.edu,Female,253.224.64.136
83,Dahlia,Soldan,dsoldan2a@rakuten.co.jp,Female,250215251246
84,Ana,Oakenfield,aoakenfield2b@icq.com,Female,248139248147
85,Karlis,Bigmore,kbigmore2c@vinaora.com,Male,93.72.125.211
86,Chrissy,Meins,cmeins2d@twitter.com,Male,24.142.68.148
87,Aguie,Salvati,asalvati2e@angelfire.com,Male,128151225124
88,Maude,Roch,mroch2f@mapy.cz,Female,19.166.3.202
89,Luke,Spaughton,lspaughton2g@zimbio.com,Male,36.81.160.248
90,Tremain,Stent,tstent2h@unesco.org,Male,110.182.15.157
91,Lynda,Old,lold2i@businesswire.com,Female,198.126.75.188
92,Regine,Rubury,rrubury2j@amazon.co.uk,Female,159.57.224.206
93,Georgiana,Kittoe,gkittoe2k@squidoo.com,Female,15120168218
94,Wendall,Ulyat,wulyat2l@amazon.co.uk,Male,247.192.27.69
95,Priscella,Lodge,plodge2m@huffingtonpost.com,Female,167.202.28.182
96,Nananne,Bidder,nbidder2n@drupal.org,Female,93.71.210.4
97,Noel,Stoffels,nstoffels2o@mapquest.com,Male,251.4.166.207
98,Addy,Gittins,agittins2p@cyberchimps.com,Female,90.73.53.209
99,Tedmund,Harnetty,tharnetty2q@trellian.com,Male,191.14.167.6
100,Gaspard,Rolls,grolls2r@sbwire.com,Male,236.0.163.106
101,Jacenta,Clendening,jclendening2s@stumbleupon.com,Female,236.54.96.250
102,Caspar,Partrick,cpartrick2t@shop-pro.jp,Male,215218225185
103,Winne,Coaster,wcoaster2u@miibeian.gov.cn,Female,211.116.32.51
104,Harlen,Hellin,hhellin2v@yahoo.com,Male,192.215.252.46
105,Ruggiero,Dudhill,rdudhill2w@google.ca,Male,97131222234
106,Rowney,Brackenbury,rbrackenbury2x@jugem.jp,Male,225123155198
107,Lianna,Tunnock,ltunnock2y@ocn.ne.jp,Female,101.186.97.160
108,Neal,Limpkin,nlimpkin2z@hubpages.com,Male,19236159242
109,Forrester,Cuppleditch,fcuppleditch30@slashdot.org,Male,124.61.44.231
110,Hesther,Margerison,hmargerison31@reuters.com,Female,63147241202
111,Odella,Mayberry,omayberry32@yellowbook.com,Female,133.109.66.48
112,Sigismondo,Gowthorpe,sgowthorpe33@go.com,Male,180.233.39.25
113,Sharona,Drayn,sdrayn34@weebly.com,Female,81.209.142.70
114,Neel,Coombs,ncoombs35@ebay.com,Male,163.105.51.24
115,Sidney,Willmetts,swillmetts36@seattletimes.com,Male,153107224244
116,Aundrea,Goakes,agoakes37@usda.gov,Female,246.51.98.11
117,Beniamino,Hulland,bhulland38@skyrock.com,Male,136102153111
118,Irvin,Burch,iburch39@google.ca,Male,198.122.105.33
119,Burke,Janc,bjanc3a@cdc.gov,Male,213139194196
120,Roobbie,Verity,rverity3b@amazonaws.com,Female,222.40.162.144
121,Godfrey,Beggi,gbeggi3c@constantcontact.com,Male,76209158179
122,Jeth,Nisen,jnisen3d@house.gov,Male,104.204.37.80
123,Killian,Ffrench,kffrench3e@multiply.com,Male,31109134244
124,Gareth,Copley,gcopley3f@gnu.org,Male,95.194.211.50
125,Isak,McGairl,imcgairl3g@nyu.edu,Male,223.94.129.86
126,Simone,Swindles,sswindles3h@state.tx.us,Male,192.61.160.92
127,Hendrick,Halt,hhalt3i@ehow.com,Male,132.97.170.210
128,Emery,Thornewill,ethornewill3j@netvibes.com,Male,182.83.197.223
129,Earl,Warrick,ewarrick3k@unesco.org,Male,60.63.37.180
130,Kilian,Perryman,kperryman3l@i2i.jp,Male,59.48.176.203
131,Mitzi,Brahan,mbrahan3m@macromedia.com,Female,214.185.185.51
132,Fawne,Wimbush,fwimbush3n@abc.net.au,Female,226.2.196.61
133,Sosanna,Blevin,sblevin3o@infoseek.co.jp,Female,147.131.88.83
134,Clarence,Gockelen,cgockelen3p@geocities.com,Male,0.2.50.207
135,Fonz,Guinan,fguinan3q@wisc.edu,Male,167195143138
136,Vivianna,Thicking,vthicking3r@networksolutions.com,Female,192.66.245.174
137,Free,Pepler,fpepler3s@google.de,Male,76.120.42.83
138,Perkin,Sly,psly3t@admin.ch,Male,155.160.6.101
139,Camella,Pynner,cpynner3u@soup.io,Female,67.55.124.121
140,Ellswerth,Bridle,ebridle3v@joomla.org,Male,69.17.185.242
141,Otho,Mattson,omattson3w@plala.or.jp,Male,81.26.253.26
142,Cristionna,Makiver,cmakiver3x@craigslist.org,Female,198107142147
143,Amabelle,Farrier,afarrier3y@usatoday.com,Female,251.23.179.174
144,Alfy,Harkes,aharkes3z@printfriendly.com,Male,236216212241
145,Mitch,Cheltnam,mcheltnam40@w3.org,Male,52.200.77.67
146,Devi,Laskey,dlaskey41@illinois.edu,Female,3.34.5.224
147,Noel,Woltering,nwoltering42@fotki.com,Female,49.246.149.49
148,Conroy,Bulstrode,cbulstrode43@slate.com,Male,2.7.74.106
149,Nelli,Steagall,nsteagall44@unesco.org,Female,131.96.54.65
150,Gretal,Petraitis,gpetraitis45@samsung.com,Female,47151176183
151,Emilie,Houlden,ehoulden46@163.com,Female,213.165.186.47
152,Jeth,Biskup,jbiskup47@rambler.ru,Male,60162245141
153,Francois,McNeely,fmcneely48@indiatimes.com,Male,54.126.47.46
154,Nita,Scardefield,nscardefield49@imdb.com,Female,49.11.118.40
155,Kamillah,Sewards,ksewards4a@fc2.com,Female,207.89.6.236
156,Ellsworth,Connelly,econnelly4b@parallels.com,Male,49.6.123.93
157,Slade,Whiteoak,swhiteoak4c@google.fr,Male,142115148254
158,Elset,Darbyshire,edarbyshire4d@bigcartel.com,Female,210.77.11.77
159,Norbie,Byng,nbyng4e@plala.or.jp,Male,180.125.69.187
160,Rick,Galia,rgalia4f@nbcnews.com,Male,250.190.251.2
161,Henryetta,Haggidon,hhaggidon4g@tmall.com,Female,81.231.86.121
162,Alexandra,Gommery,agommery4h@google.co.uk,Female,88.29.179.23
163,Wash,Matyashev,wmatyashev4i@intel.com,Male,46.151.181.88
164,Jarrid,Dupoy,jdupoy4j@tinypic.com,Male,15241197123
165,Daniela,Wastie,dwastie4k@wikia.com,Female,129.133.44.214
166,Hamlen,Denisard,hdenisard4l@aol.com,Male,61.46.190.20
167,Hakeem,Rait,hrait4m@wsj.com,Male,171.134.26.136
168,Franciskus,Kingsland,fkingsland4n@squidoo.com,Male,7.189.40.165
169,Cecily,Bishopp,cbishopp4o@springer.com,Female,111.53.124.159
170,Fredelia,Cannan,fcannan4p@yelp.com,Female,8.24.171.112
171,Stephenie,Gidley,sgidley4q@hatena.ne.jp,Female,18224122192
172,Mavra,Stubbin,mstubbin4r@wikimedia.org,Female,19.11.9.238
173,Mellicent,Krolle,mkrolle4s@canalblog.com,Female,79.75.156.230
174,Fee,Dallicott,fdallicott4t@fotki.com,Male,128170106101
175,Alexina,Hasling,ahasling4u@cbslocal.com,Female,20.75.30.228
176,Anatole,Learoyde,alearoyde4v@jalbum.net,Male,98.18.11.95
177,Tally,Splevings,tsplevings4w@51.la,Male,200.131.140.55
178,Demetrius,Hickin,dhickin4x@edublogs.org,Male,33.84.138.155
179,Shepperd,Dron,sdron4y@quantcast.com,Male,99104117110
180,Roth,Glaisner,rglaisner4z@google.com.br,Male,176.146.57.50
181,Adan,Render,arender50@sohu.com,Male,235.94.204.147
182,Eleonore,Hollow,ehollow51@bigcartel.com,Female,76163219156
183,Maddi,Rakestraw,mrakestraw52@photobucket.com,Female,193138236135
184,Poppy,Standish,pstandish53@tamu.edu,Female,146103230227
185,Chrissie,O'Breen,cobreen54@apache.org,Female,120.191.200.67
186,Mario,Meaton,mmeaton55@wikia.com,Male,248.18.85.135
187,Ursola,Webby,uwebby56@npr.org,Female,215.23.25.131
188,Raff,Matthius,rmatthius57@wordpress.org,Male,12.121.60.196
189,Everett,Dulany,edulany58@usgs.gov,Male,125.83.120.138
190,Ronnica,Trethewey,rtrethewey59@mysql.com,Female,112.227.43.190
191,Quillan,Portinari,qportinari5a@hp.com,Male,151.134.65.189
192,Davis,Corington,dcorington5b@scribd.com,Male,36198224176
193,Rozelle,Korpolak,rkorpolak5c@tumblr.com,Female,126242146134
194,Rance,Dugood,rdugood5d@linkedin.com,Male,252.244.84.238
195,Auberta,Kerin,akerin5e@elpais.com,Female,131.189.28.113
196,Petronille,Soeiro,psoeiro5f@yellowbook.com,Female,93150243248
197,Raff,Egginton,regginton5g@discovery.com,Male,227.131.249.27
198,Lilli,Ybarra,lybarra5h@exblog.jp,Female,181.26.3.210
199,Neely,Kenefick,nkenefick5i@salon.com,Female,32.244.251.83
200,Wally,Padmore,wpadmore5j@reference.com,Male,168.210.2.199
201,Madelene,Albutt,malbutt5k@virginia.edu,Female,78.105.208.47
202,Onofredo,Scranedge,oscranedge5l@npr.org,Male,98.2.200.141
203,Shea,Rzehorz,srzehorz5m@pinterest.com,Female,206.94.195.87
204,Goober,Chansonnau,gchansonnau5n@jalbum.net,Male,38.251.45.201
205,Nerta,Yeiles,nyeiles5o@fotki.com,Female,8.52.122.190
206,Kellen,Carlton,kcarlton5p@github.io,Male,112.236.44.32
207,Lee,Matteoli,lmatteoli5q@census.gov,Female,181187129106
208,Jacqui,Goodram,jgoodram5r@pbs.org,Female,20.16.4.106
209,Sylvia,Vairow,svairow5s@clickbank.net,Female,235247126198
210,Nelle,Mawd,nmawd5t@dedecms.com,Female,49.90.183.194
211,Baryram,Gingles,bgingles5u@nydailynews.com,Male,43129139174
212,Blaire,Keuning,bkeuning5v@hc360.com,Female,20.32.86.142
213,Oralle,Florentine,oflorentine5w@51.la,Female,109158219112
214,Graham,Seargeant,gseargeant5x@adobe.com,Male,208.42.199.136
215,Stillman,Mallan,smallan5y@msu.edu,Male,121.77.124.147
216,Nicolina,Ault,nault5z@ed.gov,Female,126.68.191.199
217,Inger,Vauls,ivauls60@google.pl,Female,97.177.62.93
218,Deina,Little,dlittle61@auda.org.au,Female,179.21.37.201
219,Kathryn,Perford,kperford62@amazonaws.com,Female,147100191250
220,Micheline,Lanbertoni,mlanbertoni63@xing.com,Female,26.32.139.9
221,Fayre,Washtell,fwashtell64@zdnet.com,Female,116.254.5.151
222,Nickie,Sibery,nsibery65@hud.gov,Male,134.218.77.107
223,Fair,Strippel,fstrippel66@instagram.com,Male,50.170.65.117
224,Burton,Destouche,bdestouche67@wikia.com,Male,117234196242
225,Simone,Djurisic,sdjurisic68@barnesandnoble.com,Male,19149242243
226,Beryl,Baraclough,bbaraclough69@tamu.edu,Female,95.229.128.67
227,Bettine,Tuffield,btuffield6a@angelfire.com,Female,229.225.251.17
228,Shae,Kolakowski,skolakowski6b@latimes.com,Female,70197120168
229,Olympe,Colclough,ocolclough6c@blogtalkradio.com,Female,83.131.189.5
230,Tilly,Lewty,tlewty6d@admin.ch,Female,175.150.25.114
231,Rosy,Lambell,rlambell6e@tmall.com,Female,71.181.113.45
232,Kristoforo,Grahamslaw,kgrahamslaw6f@ox.ac.uk,Male,228122155195
233,Starlin,Egalton,segalton6g@vistaprint.com,Female,83169117218
234,Cherlyn,Strangwood,cstrangwood6h@kickstarter.com,Female,124.155.122.55
235,Lucine,Lockhurst,llockhurst6i@bbc.co.uk,Female,93.204.6.117
236,Lorilyn,Worthy,lworthy6j@google.fr,Female,187.60.139.166
237,Kilian,Kingswood,kkingswood6k@plala.or.jp,Male,251179235194
238,Marlin,Weeden,mweeden6l@wunderground.com,Male,160.64.255.63
239,Werner,Scarratt,wscarratt6m@tripadvisor.com,Male,176246172186
240,Karna,Woodrooffe,kwoodrooffe6n@disqus.com,Female,138.146.59.103
241,Grenville,Jovis,gjovis6o@wix.com,Male,99133136139
242,Vic,Dunkersley,vdunkersley6p@twitpic.com,Male,165.80.169.239
243,Nedi,Bloys,nbloys6q@chicagotribune.com,Female,237.158.223.40
244,Rozella,Pryor,rpryor6r@domainmarket.com,Female,11.185.58.111
245,Rania,Jellyman,rjellyman6s@ucoz.com,Female,128.119.91.67
246,Lisetta,Stove,lstove6t@usnews.com,Female,172251224185
247,Moe,Airds,mairds6u@princeton.edu,Male,224.150.88.106
248,Dannye,Fick,dfick6v@redcross.org,Female,191.213.48.152
249,Osborne,Leall,oleall6w@smugmug.com,Male,120.63.5.43
250,Ania,Limeburner,alimeburner6x@adobe.com,Female,202106102107
251,Gualterio,Maeer,gmaeer6y@parallels.com,Male,25.142.51.40
252,Merci,Becerro,mbecerro6z@wsj.com,Female,74.31.142.29
253,Burtie,Newport,bnewport70@slashdot.org,Male,29.64.144.173
254,Joseph,Bettenay,jbettenay71@sina.com.cn,Male,71.89.2.150
255,Delcine,Seal,dseal72@theguardian.com,Female,104.8.60.151
256,Ardith,Grooby,agrooby73@irs.gov,Female,148.23.132.226
257,Cyrille,Sackur,csackur74@pcworld.com,Male,247181211225
258,Claus,Cranidge,ccranidge75@howstuffworks.com,Male,178.128.23.28
259,Lolly,Tarver,ltarver76@google.pl,Female,247.238.97.58
260,Lionel,McIlenna,lmcilenna77@arizona.edu,Male,9.222.68.126
261,Ashli,Isaacs,aisaacs78@hc360.com,Female,60.163.64.148
262,Harlene,Bovey,hbovey79@smh.com.au,Female,186122225124
263,Rabbi,Goodered,rgoodered7a@blog.com,Male,209.133.141.73
264,Sabine,Pickerill,spickerill7b@zimbio.com,Female,205116117239
265,Bernadette,Schultze,bschultze7c@bloomberg.com,Female,210.37.218.17
266,Hercules,Matteucci,hmatteucci7d@bigcartel.com,Male,217171121210
267,Dalston,Kynvin,dkynvin7e@myspace.com,Male,92.81.63.137
268,Sheffy,Archbald,sarchbald7f@senate.gov,Male,220.39.16.125
269,Denny,Gatlin,dgatlin7g@pinterest.com,Male,111.242.154.9
270,Griff,Iddon,giddon7h@exblog.jp,Male,154.75.58.112
271,Andie,Bilam,abilam7i@ftc.gov,Female,76.39.28.78
272,Sanford,Keegan,skeegan7j@cdc.gov,Male,92.88.246.75
273,Cathie,Lode,clode7k@patch.com,Female,10.225.218.5
274,Lewes,Collum,lcollum7l@nationalgeographic.com,Male,183195233225
275,Corny,Everingham,ceveringham7m@github.io,Male,132.3.111.78
276,Pearl,Wolfer,pwolfer7n@state.tx.us,Female,137.8.165.151
277,Bail,Dilloway,bdilloway7o@shutterfly.com,Male,86.202.27.163
278,Robbie,Colaco,rcolaco7p@hp.com,Male,4.32.134.146
279,Dru,Penquet,dpenquet7q@usatoday.com,Male,227.158.10.131
280,Gino,Pechard,gpechard7r@earthlink.net,Male,40108200251
281,Shelby,Burnall,sburnall7s@lulu.com,Male,218.248.96.206
282,Rosalind,Hoble,rhoble7t@baidu.com,Female,183198205129
283,Denys,Alexandersen,dalexandersen7u@mac.com,Female,64109138255
284,Binni,Johanssen,bjohanssen7v@aol.com,Female,90243177184
285,Addy,MacGille,amacgille7w@ucla.edu,Female,32158157222
286,Ilaire,Terrans,iterrans7x@examiner.com,Male,57.146.34.63
287,Beth,Domnin,bdomnin7y@patch.com,Female,156251171168
288,Bale,Kenaway,bkenaway7z@amazon.de,Male,196.99.136.80
289,Jan,Claffey,jclaffey80@photobucket.com,Male,39.51.221.155
290,Papagena,Pomeroy,ppomeroy81@imgur.com,Female,22183242138
291,Tessa,Hughs,thughs82@moonfruit.com,Female,135.16.115.108
292,Kristopher,Chastang,kchastang83@fc2.com,Male,107.121.58.49
293,Steffane,Frandsen,sfrandsen84@sogou.com,Female,53.17.250.247
294,Mathilda,Sammon,msammon85@nasa.gov,Female,137.28.8.127
295,Ebba,Awde,eawde86@businessinsider.com,Female,143.47.186.78
296,Humfried,Lavalde,hlavalde87@lycos.com,Male,155.244.172.6
297,Olly,Jacobson,ojacobson88@elpais.com,Male,174141255195
298,Estrella,Ramiro,eramiro89@paginegialle.it,Female,127.114.77.191
299,Elisabet,Basilotta,ebasilotta8a@cisco.com,Female,143.113.53.132
300,Mallorie,Matschek,mmatschek8b@patch.com,Female,117208235181
301,Anabal,Crudginton,acrudginton8c@utexas.edu,Female,167.45.177.184
302,Morly,Budden,mbudden8d@cbsnews.com,Male,253.74.65.61
303,Marnia,McKiddin,mmckiddin8e@dedecms.com,Female,155140159251
304,Kacie,Melson,kmelson8f@skype.com,Female,197.122.199.38
305,Creigh,Ettridge,cettridge8g@chron.com,Male,149.220.36.28
306,Hadria,O'Kennavain,hokennavain8h@infoseek.co.jp,Female,30.25.188.190
307,Whitney,Shipsey,wshipsey8i@unc.edu,Female,143.27.245.93
308,Shea,Cuerda,scuerda8j@vk.com,Male,207.138.33.154
309,Guthrie,Sillett,gsillett8k@mit.edu,Male,243.211.136.41
310,Myrlene,Kenan,mkenan8l@house.gov,Female,93.87.244.127
311,Naoma,Balma,nbalma8m@github.io,Female,190.239.231.36
312,Malory,Faulkener,mfaulkener8n@bravesites.com,Female,195.105.54.250
313,Lorianne,Glowacki,lglowacki8o@shinystat.com,Female,52248166160
314,Lorenzo,Ackenhead,lackenhead8p@constantcontact.com,Male,49250136187
315,Edvard,Tarbin,etarbin8q@dmoz.org,Male,135.141.41.160
316,Cherice,Moden,cmoden8r@telegraph.co.uk,Female,43164223194
317,Sidonnie,Stavers,sstavers8s@simplemachines.org,Female,249177102241
318,Ivonne,Danshin,idanshin8t@merriam-webster.com,Female,124230218209
319,Hill,Bunn,hbunn8u@free.fr,Male,99.245.65.76
320,Odille,Bartle,obartle8v@ezinearticles.com,Female,232.19.119.166
321,Wallace,Flea,wflea8w@answers.com,Male,126.39.73.101
322,Phil,Fairhead,pfairhead8x@bloglovin.com,Female,25.65.59.58
323,Justen,Stivey,jstivey8y@pbs.org,Male,184.174.136.46
324,Angus,Livingston,alivingston8z@dyndns.org,Male,72.126.130.76
325,Rosabella,Levane,rlevane90@google.pl,Female,91.142.0.204
326,Freeman,Wymer,fwymer91@flickr.com,Male,118.93.244.163
327,Daryle,Cheston,dcheston92@opera.com,Male,166254180155
328,Timoteo,Bishopp,tbishopp93@photobucket.com,Male,6.180.111.54
329,Kathie,Canland,kcanland94@quantcast.com,Female,31.227.72.137
330,Dominik,Brannan,dbrannan95@elegantthemes.com,Male,84.175.41.103
331,Alvira,Baume,abaume96@hubpages.com,Female,135186190115
332,Issy,Frary,ifrary97@craigslist.org,Female,63.139.50.129
333,Tanhya,Tooth,ttooth98@census.gov,Female,181213170114
334,Maurizia,Attewell,mattewell99@alexa.com,Female,220.89.66.31
335,Gale,Bythway,gbythway9a@harvard.edu,Female,69235123148
336,Aubrie,Gergolet,agergolet9b@list-manage.com,Female,135.86.112.237
337,Koren,Nolan,knolan9c@live.com,Female,84.158.10.179
338,Burnard,Simmell,bsimmell9d@arizona.edu,Male,60.6.240.178
339,Lynsey,Strick,lstrick9e@webmd.com,Female,154.177.17.150
340,Roderigo,Breed,rbreed9f@china.com.cn,Male,134.157.252.4
341,Anissa,MacQuarrie,amacquarrie9g@163.com,Female,152.40.6.133
342,Mathilde,Walkling,mwalkling9h@google.co.uk,Female,125.57.77.176
343,Fernando,Matveichev,fmatveichev9i@who.int,Male,234.132.47.148
344,Port,Pershouse,ppershouse9j@google.es,Male,55127185205
345,Milena,Manuel,mmanuel9k@discovery.com,Female,225.178.4.42
346,Curran,Albutt,calbutt9l@yelp.com,Male,18207238247
347,Cammi,Ivanovic,civanovic9m@cbc.ca,Female,75.224.232.18
348,Zollie,Gaspar,zgaspar9n@wikimedia.org,Male,199.12.62.141
349,Elliot,Bristow,ebristow9o@moonfruit.com,Male,97.249.81.245
350,Gustavo,Ferraro,gferraro9p@sitemeter.com,Male,101132244184
351,Quintina,Telezhkin,qtelezhkin9q@themeforest.net,Female,186.46.104.161
352,Cassandre,Basson,cbasson9r@techcrunch.com,Female,115.53.11.77
353,Mack,Philcock,mphilcock9s@psu.edu,Male,138115231103
354,Brett,Penlington,bpenlington9t@omniture.com,Female,252.184.26.72
355,Tracie,Bichener,tbichener9u@cocolog-nifty.com,Male,11.218.18.102
356,Sonny,Guihen,sguihen9v@si.edu,Male,140.36.153.233
357,Manolo,Neeves,mneeves9w@xrea.com,Male,31.46.107.93
358,Genia,Atlay,gatlay9x@list-manage.com,Female,77.56.250.45
359,Read,Pettengell,rpettengell9y@printfriendly.com,Male,126.233.100.86
360,Zonda,Anton,zanton9z@weibo.com,Female,71238158174
361,Sybyl,Bullent,sbullenta0@smugmug.com,Female,75.27.180.156
362,Zeb,Skelly,zskellya1@exblog.jp,Male,151170156106
363,Kirsteni,McKeeman,kmckeemana2@google.ca,Female,90232220160
364,Jasmin,Hardman,jhardmana3@vk.com,Female,170.152.53.42
365,Lesly,Fanti,lfantia4@purevolume.com,Female,247.165.235.36
366,Abbey,Beaney,abeaneya5@sina.com.cn,Male,171.103.3.130
367,Karylin,Reveley,kreveleya6@jalbum.net,Female,219.127.148.25
368,Ada,Timbs,atimbsa7@delicious.com,Female,188.25.206.35
369,Lauryn,Antonognoli,lantonognolia8@jalbum.net,Female,241174241244
370,Gabie,Pickworth,gpickwortha9@kickstarter.com,Female,164210146166
371,Camellia,Bettlestone,cbettlestoneaa@fotki.com,Female,40.1.69.201
372,Bryon,Eadmeades,beadmeadesab@statcounter.com,Male,103168112132
373,Alejandrina,Wharlton,awharltonac@va.gov,Female,81.25.71.28
374,Vincents,Vern,vvernad@meetup.com,Male,159.189.46.210
375,Gwynne,Fulep,gfulepae@cdc.gov,Female,180.28.12.151
376,Templeton,Tankin,ttankinaf@nationalgeographic.com,Male,148184215136
377,Roberta,Arguile,rarguileag@friendfeed.com,Female,183.15.215.158
378,Winifred,Sloper,wsloperah@adobe.com,Female,35.180.88.161
379,Michael,Sturmey,msturmeyai@gravatar.com,Male,14.8.158.195
380,Malinda,Gonnelly,mgonnellyaj@harvard.edu,Female,160.34.124.99
381,Vladamir,Wales,vwalesak@51.la,Male,91.175.3.139
382,Francklin,Pedrozzi,fpedrozzial@google.com.hk,Male,167.82.204.252
383,Clive,Flawn,cflawnam@latimes.com,Male,10.123.95.62
384,Cly,Crossdale,ccrossdalean@marriott.com,Male,64.41.117.37
385,Dulcia,Dolton,ddoltonao@google.fr,Female,79.229.18.99
386,Shay,Parke,sparkeap@cocolog-nifty.com,Male,82.219.72.30
387,Glynda,Guildford,gguildfordaq@alexa.com,Female,192.100.71.64
388,Humfrey,Bigrigg,hbigriggar@washingtonpost.com,Male,148.135.104.5
389,Lavina,Gibbins,lgibbinsas@pinterest.com,Female,69.216.185.28
390,Greer,Turbern,gturbernat@xinhuanet.com,Female,245.30.186.197
391,Poul,Stebbing,pstebbingau@bbc.co.uk,Male,180.141.60.45
392,Cirillo,Cordelette,ccordeletteav@nydailynews.com,Male,190.8.225.91
393,Davy,Fenners,dfennersaw@g.co,Male,56.134.115.27
394,Nico,Scarff,nscarffax@about.me,Male,134.240.189.69
395,Elvina,Fotheringham,efotheringhamay@slashdot.org,Female,106.49.73.164
396,Izaak,Lane,ilaneaz@uol.com.br,Male,200.96.6.188
397,Jerrie,Martignon,jmartignonb0@is.gd,Male,33.37.40.239
398,Nolana,Crease,ncreaseb1@altervista.org,Female,86.203.3.122
399,Jarad,Christophe,jchristopheb2@google.com.br,Male,73.138.229.74
400,Tucker,Carnegy,tcarnegyb3@phoca.cz,Male,103116240251
401,Zechariah,McCotter,zmccotterb4@alexa.com,Male,62.73.224.238
402,Farrel,Parcall,fparcallb5@economist.com,Male,118.42.43.147
403,Homer,Garlicke,hgarlickeb6@storify.com,Male,66.216.67.159
404,Aeriell,Maeer,amaeerb7@stumbleupon.com,Female,199.56.78.232
405,Hagen,Manser,hmanserb8@salon.com,Male,142.57.228.93
406,Esme,Farry,efarryb9@imgur.com,Female,50.240.13.228
407,Orson,Issitt,oissittba@archive.org,Male,126212139173
408,Marcel,Jorck,mjorckbb@icio.us,Male,142174253153
409,Kesley,Trundler,ktrundlerbc@jimdo.com,Female,228.131.15.127
410,Eward,Normanvill,enormanvillbd@ed.gov,Male,95.142.236.5
411,Deloris,Wallwork,dwallworkbe@census.gov,Female,233.186.79.215
412,Charmain,Rossbrooke,crossbrookebf@dyndns.org,Female,197.195.72.72
413,Seward,Beardsley,sbeardsleybg@ucla.edu,Male,100.189.70.90
414,Shanan,Flade,sfladebh@shop-pro.jp,Male,48.90.135.125
415,Karina,Greenfield,kgreenfieldbi@opera.com,Female,218.85.2.57
416,Raff,Ausello,rausellobj@1und1.de,Male,22.67.237.81
417,Hughie,Dittson,hdittsonbk@bing.com,Male,183.65.184.24
418,Nev,Camoys,ncamoysbl@pagesperso-orange.fr,Male,70.60.240.52
419,Candy,Hasker,chaskerbm@w3.org,Female,24.105.160.58
420,Martainn,Huke,mhukebn@google.com,Male,172.87.77.108
421,Benny,Nuzzi,bnuzzibo@alexa.com,Male,189.1.127.9
422,Mahalia,Lello,mlellobp@tiny.cc,Female,47.6.193.241
423,Vic,Kinmond,vkinmondbq@telegraph.co.uk,Male,122.3.234.145
424,Blythe,Matijasevic,bmatijasevicbr@cpanel.net,Female,156164101223
425,Rosanne,Scritch,rscritchbs@tuttocitta.it,Female,170.159.217.42
426,Katuscha,MacAnellye,kmacanellyebt@myspace.com,Female,6.192.70.153
427,Leonard,Moxson,lmoxsonbu@woothemes.com,Male,122191255182
428,Fernanda,Threlkeld,fthrelkeldbv@comcast.net,Female,89.245.187.45
429,Normy,Surplice,nsurplicebw@jigsy.com,Male,111168161161
430,Bill,Scrauniage,bscrauniagebx@reddit.com,Male,66.249.218.15
431,Antonio,Borghese,aborgheseby@ameblo.jp,Male,62226129237
432,Jeralee,MacMeekan,jmacmeekanbz@utexas.edu,Female,55192181108
433,Anson,Ladd,aladdc0@cloudflare.com,Male,14.60.127.209
434,Nichol,MacGall,nmacgallc1@yale.edu,Female,234.50.217.147
435,Walden,Patrickson,wpatricksonc2@pagesperso-orange.fr,Male,196.29.20.36
436,Cly,Scholler,cschollerc3@desdev.cn,Male,247.53.151.26
437,Josie,Bemment,jbemmentc4@archive.org,Female,198.181.45.16
438,Janey,Hume,jhumec5@linkedin.com,Female,18.89.155.217
439,Valle,Harvie,vharviec6@mtv.com,Male,184.101.96.26
440,Alfi,Lidden,aliddenc7@cloudflare.com,Female,22164171255
441,Silva,Dow,sdowc8@prweb.com,Female,242.83.245.239
442,Beaufort,Aldridge,baldridgec9@hibu.com,Male,53.73.12.133
443,Cecelia,Prendiville,cprendivilleca@sina.com.cn,Female,197186149237
444,Ardith,Pawelski,apawelskicb@tuttocitta.it,Female,157.187.15.184
445,Darryl,Crucetti,dcrucetticc@nifty.com,Male,29.93.19.38
446,Talya,Sommerville,tsommervillecd@globo.com,Female,130125231131
447,Clywd,Pilger,cpilgerce@goo.gl,Male,115.95.75.46
448,Benn,Hullock,bhullockcf@ucla.edu,Male,24.8.116.171
449,Masha,McGuinley,mmcguinleycg@tuttocitta.it,Female,146.27.15.198
450,Vernon,Paniman,vpanimanch@bandcamp.com,Male,136.229.84.46
451,Johann,Brendel,jbrendelci@paginegialle.it,Male,117.186.93.183
452,Helsa,Cumpsty,hcumpstycj@nasa.gov,Female,122.200.86.119
453,Ave,Acutt,aacuttck@epa.gov,Male,253.212.51.220
454,Hailey,Click,hclickcl@a8.net,Male,31.54.253.203
455,Joann,Maddra,jmaddracm@aol.com,Female,18.53.53.237
456,Tate,Lougheed,tlougheedcn@msu.edu,Female,210242205125
457,Terrence,Posten,tpostenco@1688.com,Male,198.116.182.82
458,Olav,Goundrill,ogoundrillcp@yahoo.co.jp,Male,150.17.84.107
459,Kennan,Spoole,kspoolecq@oaic.gov.au,Male,237.11.243.204
460,Mandi,Middlebrook,mmiddlebrookcr@google.ru,Female,162.1.119.94
461,Lianne,Stoyell,lstoyellcs@census.gov,Female,107.58.84.32
462,Katrine,Search,ksearchct@illinois.edu,Female,151.248.51.216
463,Modestia,Watts,mwattscu@nationalgeographic.com,Female,91.63.181.105
464,Kathie,Wareham,kwarehamcv@angelfire.com,Female,37190154162
465,Trix,Pietroni,tpietronicw@wikimedia.org,Female,77229202236
466,Harriott,Mably,hmablycx@smugmug.com,Female,78.204.124.12
467,Chantal,Craigg,ccraiggcy@china.com.cn,Female,156.113.65.223
468,Waldon,Tunniclisse,wtunniclissecz@twitter.com,Male,226.242.60.179
469,Mellie,Nafzger,mnafzgerd0@accuweather.com,Female,119.202.55.92
470,Charo,Wonfor,cwonford1@addtoany.com,Female,129.11.60.86
471,Paul,Yurenin,pyurenind2@canalblog.com,Male,249.87.81.54
472,Pancho,Penkman,ppenkmand3@businessweek.com,Male,178.234.72.211
473,Wendye,Ryam,wryamd4@omniture.com,Female,3194138249
474,Odele,McCloch,omcclochd5@globo.com,Female,177235200246
475,Ezri,Pellamont,epellamontd6@hc360.com,Male,37.91.225.52
476,Emery,Dunford,edunfordd7@google.es,Male,7.9.44.117
477,Derrick,Guillart,dguillartd8@harvard.edu,Male,155.179.103.64
478,Rorke,Newbury,rnewburyd9@mit.edu,Male,106244177166
479,Gabi,Ferrarese,gferrareseda@mashable.com,Male,129.116.9.203
480,Frazier,Merriman,fmerrimandb@nydailynews.com,Male,35.123.70.42
481,Dorry,Bevens,dbevensdc@yellowbook.com,Female,31.100.173.2
482,Beverly,Poff,bpoffdd@zdnet.com,Female,66196175175
483,Robinia,Christoffels,rchristoffelsde@artisteer.com,Female,204.39.226.215
484,Adda,Tosdevin,atosdevindf@creativecommons.org,Female,113117223231
485,Judith,Brooksby,jbrooksbydg@theguardian.com,Female,62.226.113.31
486,Leia,Tarrier,ltarrierdh@sfgate.com,Female,192.161.50.152
487,Obediah,Parrin,oparrindi@pcworld.com,Male,84.136.22.205
488,Chelsae,Orring,corringdj@baidu.com,Female,238198146128
489,Bonni,Frostdick,bfrostdickdk@springer.com,Female,119222166129
490,Esdras,Wyndham,ewyndhamdl@delicious.com,Male,212.180.89.116
491,Barde,Morrissey,bmorrisseydm@taobao.com,Male,222.198.65.169
492,Chiquita,Clamp,cclampdn@mysql.com,Female,46.144.117.11
493,Edee,Macari,emacarido@oaic.gov.au,Female,194.75.186.19
494,Zabrina,Beumant,zbeumantdp@discuz.net,Female,50.38.224.128
495,Arne,Panter,apanterdq@amazonaws.com,Male,182.176.186.30
496,Charmaine,Dodworth,cdodworthdr@mit.edu,Female,170.128.234.96
497,Matthieu,McCowen,mmccowends@umich.edu,Male,172.173.192.37
498,Kittie,Cornelis,kcornelisdt@disqus.com,Female,147.43.236.143
499,Brennan,Matyushonok,bmatyushonokdu@ning.com,Male,221.106.208.16
500,Jenine,Heaps,jheapsdv@nationalgeographic.com,Female,104108159211
501,Celisse,Plumridge,cplumridgedw@issuu.com,Female,238186214125
502,Thane,Coviello,tcoviellodx@ucla.edu,Male,119.2.107.47
503,Samuele,Revitt,srevittdy@house.gov,Male,200.169.67.232
504,Willdon,Woodwin,wwoodwindz@abc.net.au,Male,195.101.181.47
505,Hart,Pechan,hpechane0@wordpress.org,Male,73.88.195.174
506,Donn,Le Friec,dlefriece1@ebay.co.uk,Male,235.213.87.10
507,Marlon,Rheaume,mrheaumee2@canalblog.com,Male,247.176.71.132
508,Fan,Coweuppe,fcoweuppee3@sfgate.com,Female,215.45.238.161
509,Sheffie,Baldrey,sbaldreye4@yolasite.com,Male,65.42.39.182
510,Micheal,Brosius,mbrosiuse5@msn.com,Male,213.23.200.142
511,Silvano,D'Orsay,sdorsaye6@mediafire.com,Male,248221127194
512,Helaina,Bartomieu,hbartomieue7@berkeley.edu,Female,55.58.24.203
513,Guillaume,Blesdill,gblesdille8@angelfire.com,Male,187.124.53.73
514,Cathrine,Monte,cmontee9@dmoz.org,Female,110.42.57.237
515,Lane,Lafuente,llafuenteea@businessinsider.com,Male,127.56.179.123
516,Cristy,Bracchi,cbracchieb@sourceforge.net,Female,243.35.164.34
517,Andres,Cottey,acotteyec@altervista.org,Male,147214227174
518,Reynolds,Aspital,raspitaled@instagram.com,Male,120.243.168.56
519,Burgess,Keynes,bkeynesee@ocn.ne.jp,Male,245.96.252.171
520,Arlee,Pedreschi,apedreschief@constantcontact.com,Female,32.208.163.78
521,Darci,Cowie,dcowieeg@independent.co.uk,Female,83.250.52.118
522,Andris,Burke,aburkeeh@vkontakte.ru,Male,55.116.248.68
523,Sergeant,Mordue,smordueei@ask.com,Male,73155140213
524,Almeta,Aaron,aaaronej@google.ca,Female,11.244.8.72
525,Murial,Grisenthwaite,mgrisenthwaiteek@cornell.edu,Female,6.153.104.66
526,Viviyan,Devinn,vdevinnel@buzzfeed.com,Female,48.142.41.169
527,Leontyne,Gabel,lgabelem@naver.com,Female,173.176.185.68
528,Clayson,Mc Gorley,cmcgorleyen@fda.gov,Male,246.45.68.164
529,Jeremie,Wank,jwankeo@hhs.gov,Male,94.92.209.36
530,Ximenes,Paladini,xpaladiniep@fc2.com,Male,80.49.41.248
531,Leshia,Fermor,lfermoreq@eepurl.com,Female,247.75.70.24
532,Valentijn,Fantone,vfantoneer@barnesandnoble.com,Male,74206229186
533,Alfonse,todor,atodores@squidoo.com,Male,80.47.14.49
534,Lem,Gaskoin,lgaskoinet@ning.com,Male,216.182.13.178
535,Claudius,Joskowitz,cjoskowitzeu@cdc.gov,Male,135.229.60.119
536,Georgi,Ranklin,granklinev@cnbc.com,Male,142126166202
537,Jazmin,Keppe,jkeppeew@yelp.com,Female,234225209111
538,Casper,Duxbarry,cduxbarryex@twitpic.com,Male,110.166.39.200
539,Alan,Screaton,ascreatoney@mozilla.com,Male,160.191.41.142
540,Tracy,Grene,tgreneez@dedecms.com,Male,112.203.219.39
541,Gisele,Maylam,gmaylamf0@usa.gov,Female,154.79.223.251
542,Farrah,Mirams,fmiramsf1@discovery.com,Female,33.51.111.98
543,Conny,Hairyes,chairyesf2@qq.com,Female,206.59.228.85
544,Harper,McFarlan,hmcfarlanf3@over-blog.com,Male,73.99.3.123
545,Frederich,Kondrachenko,fkondrachenkof4@gizmodo.com,Male,143.59.28.33
546,Clarance,Cliburn,ccliburnf5@about.com,Male,80230234248
547,Gilligan,Szymon,gszymonf6@intel.com,Female,28233141175
548,Dennie,Hulburt,dhulburtf7@cdc.gov,Male,76.185.233.32
549,Syman,Carneck,scarneckf8@ed.gov,Male,144.56.140.47
550,Bellina,Roft,broftf9@networkadvertising.org,Female,212.181.6.204
551,Brucie,Molan,bmolanfa@hatena.ne.jp,Male,60.8.129.60
552,Julina,Menaul,jmenaulfb@google.pl,Female,166.30.229.188
553,Clarissa,Basden,cbasdenfc@w3.org,Female,76.165.59.149
554,Cati,Mingay,cmingayfd@adobe.com,Female,180.202.30.51
555,Cesya,Chase,cchasefe@goo.ne.jp,Female,112.212.70.240
556,Martha,Cunliffe,mcunliffeff@icio.us,Female,206230133132
557,Redd,Anton,rantonfg@typepad.com,Male,64.96.165.243
558,Micaela,Cavolini,mcavolinifh@webeden.co.uk,Female,90.15.137.85
559,Silas,Rosindill,srosindillfi@redcross.org,Male,117.43.88.110
560,Cymbre,Haffard,chaffardfj@posterous.com,Female,18.33.96.75
561,Hewett,Trowell,htrowellfk@cisco.com,Male,68.65.87.3
562,Modesty,Krugmann,mkrugmannfl@elegantthemes.com,Female,95.128.13.111
563,Giuseppe,Luttger,gluttgerfm@myspace.com,Male,78.50.244.12
564,Lew,Healeas,lhealeasfn@xing.com,Male,194.127.7.65
565,Erica,Bebbell,ebebbellfo@a8.net,Female,50.193.61.181
566,Min,Romme,mrommefp@engadget.com,Female,132113188111
567,Karlotta,Schrir,kschrirfq@wordpress.org,Female,32.248.0.8
568,Alvie,Bartod,abartodfr@google.ca,Male,133.90.208.249
569,Sergei,Crickett,scrickettfs@wsj.com,Male,38.218.26.171
570,Cecilius,Buard,cbuardft@reference.com,Male,127117232167
571,Vanna,Rosiello,vrosiellofu@cbc.ca,Female,247.12.134.40
572,Isidor,Danaher,idanaherfv@nydailynews.com,Male,230212130159
573,Cathryn,Fay,cfayfw@cnet.com,Female,113.85.191.35
574,Auguste,Milmith,amilmithfx@reverbnation.com,Female,33238246194
575,Bekki,Lurner,blurnerfy@163.com,Female,125112212213
576,Robin,Jannings,rjanningsfz@sbwire.com,Female,93255227171
577,Darya,De Mico,ddemicog0@histats.com,Female,251.17.20.112
578,Blair,Orr,borrg1@digg.com,Male,154.195.106.28
579,Don,Sisson,dsissong2@naver.com,Male,63.37.226.209
580,Zacherie,Gritsaev,zgritsaevg3@cdbaby.com,Male,134.118.85.233
581,Bertrando,Caldecot,bcaldecotg4@youtube.com,Male,231.44.27.238
582,Trudie,Colbran,tcolbrang5@rakuten.co.jp,Female,188.32.124.111
583,Valdemar,Flescher,vflescherg6@engadget.com,Male,166.191.10.185
584,Dyanna,Hildred,dhildredg7@hatena.ne.jp,Female,93.67.15.27
585,Belvia,Mabone,bmaboneg8@icq.com,Female,236.247.89.107
586,Corey,Attkins,cattkinsg9@soup.io,Male,178.170.43.43
587,Free,Cescon,fcesconga@toplist.cz,Male,209.70.88.52
588,Jud,Thurbon,jthurbongb@economist.com,Male,10223104160
589,Karel,Dannehl,kdannehlgc@pen.io,Female,223.21.34.239
590,Tricia,Crosthwaite,tcrosthwaitegd@wix.com,Female,140.30.103.30
591,Marlane,Whitehead,mwhiteheadge@timesonline.co.uk,Female,60.88.217.2
592,Bonnibelle,Rolfini,brolfinigf@icq.com,Female,193.233.6.246
593,Nils,Glendinning,nglendinninggg@paginegialle.it,Male,142.100.3.69
594,Foss,Drewry,fdrewrygh@arizona.edu,Male,134183127216
595,Laurette,Andriveaux,landriveauxgi@bravesites.com,Female,62229144110
596,Kaine,Stempe,kstempegj@slashdot.org,Male,106.121.92.122
597,Oneida,Cullnean,ocullneangk@google.com.br,Female,105238187248
598,Donia,Cranham,dcranhamgl@booking.com,Female,230.4.247.188
599,Niel,Taffe,ntaffegm@nbcnews.com,Male,107.33.47.52
600,Leyla,Simao,lsimaogn@addthis.com,Female,60100198127
601,Don,Mayhead,dmayheadgo@java.com,Male,161.101.2.106
602,Kenneth,Domenge,kdomengegp@weather.com,Male,145.36.165.86
603,Hedwig,Barette,hbarettegq@reuters.com,Female,198.96.251.253
604,Di,Laister,dlaistergr@facebook.com,Female,147.45.92.147
605,Willis,MacKeogh,wmackeoghgs@rediff.com,Male,79.47.27.200
606,Sherwynd,Da Costa,sdacostagt@wisc.edu,Male,53234150166
607,Josey,Unwin,junwingu@sakura.ne.jp,Female,25.180.90.170
608,Joleen,Klaus,jklausgv@nbcnews.com,Female,78.25.205.96
609,Saxe,Provost,sprovostgw@census.gov,Male,123.149.57.60
610,Jayme,Cisco,jciscogx@reference.com,Male,117.75.250.190
611,Lyssa,Mattecot,lmattecotgy@walmart.com,Female,76227130178
612,Bran,Dreher,bdrehergz@google.co.uk,Male,126.188.82.35
613,Gilburt,Spyby,gspybyh0@time.com,Male,131.131.78.7
614,Nelly,Cloonan,ncloonanh1@cbslocal.com,Female,5.176.8.150
615,Serena,Dowrey,sdowreyh2@reverbnation.com,Female,184.173.67.31
616,Hewitt,Marieton,hmarietonh3@webeden.co.uk,Male,204.40.249.126
617,Juliana,Creer,jcreerh4@cafepress.com,Female,27.106.69.103
618,Kirbie,Martlew,kmartlewh5@last.fm,Female,76.161.91.196
619,Terese,Girt,tgirth6@posterous.com,Female,161.200.55.135
620,Janene,Rowlings,jrowlingsh7@google.com.br,Female,76.181.91.254
621,Bridie,Rimmer,brimmerh8@flavors.me,Female,216.90.193.55
622,Seumas,Lodovichi,slodovichih9@pagesperso-orange.fr,Male,173.236.151.69
623,Granny,Karpenya,gkarpenyaha@de.vu,Male,223.61.218.157
624,Griswold,Beeson,gbeesonhb@qq.com,Male,131155219120
625,Baird,Ivanichev,bivanichevhc@answers.com,Male,165164182133
626,Noll,McKeand,nmckeandhd@wordpress.com,Male,249.161.50.204
627,Lorrie,Roderham,lroderhamhe@merriam-webster.com,Male,132.134.231.79
628,Dael,Hebblewhite,dhebblewhitehf@dmoz.org,Male,3.245.147.88
629,Brandy,Savege,bsavegehg@nba.com,Male,9.172.16.107
630,Lenard,Clemanceau,lclemanceauhh@senate.gov,Male,220.51.247.198
631,Rayna,Cabera,rcaberahi@sciencedaily.com,Female,208.236.19.111
632,Karon,Shewry,kshewryhj@meetup.com,Female,249176115164
633,Hinze,Simeoli,hsimeolihk@cpanel.net,Male,172.116.197.82
634,Konstanze,Canada,kcanadahl@washington.edu,Female,72.45.244.43
635,Ferrell,Paulo,fpaulohm@aboutads.info,Male,76190212174
636,Guglielmo,Symcox,gsymcoxhn@engadget.com,Male,146.130.200.18
637,Yulma,Hindmoor,yhindmoorho@ovh.net,Male,163.68.13.81
638,Rad,Osgarby,rosgarbyhp@senate.gov,Male,127.108.72.14
639,Leupold,Martindale,lmartindalehq@cocolog-nifty.com,Male,61245117151
640,Jermain,Toothill,jtoothillhr@purevolume.com,Male,226.251.5.103
641,Sheffie,Colcomb,scolcombhs@joomla.org,Male,179.14.231.224
642,Izaak,Crampsy,icrampsyht@theglobeandmail.com,Male,194.39.226.230
643,Nikolaos,Seggie,nseggiehu@cpanel.net,Male,233.90.11.0
644,Cullie,Rosoni,crosonihv@gravatar.com,Male,15196143195
645,Tiffy,Alf,talfhw@desdev.cn,Female,56.2.121.239
646,Lawton,Maccaig,lmaccaighx@topsy.com,Male,165.211.141.88
647,Nelia,Sedgefield,nsedgefieldhy@freewebs.com,Female,75.146.39.12
648,Jeanna,Hardway,jhardwayhz@forbes.com,Female,27173186135
649,Collin,Crecy,ccrecyi0@state.gov,Male,120.23.226.69
650,Elwira,Juza,ejuzai1@ow.ly,Female,6.213.95.249
651,Tobe,Isgate,tisgatei2@meetup.com,Male,13.128.12.13
652,Harri,Dundon,hdundoni3@aol.com,Female,21132190177
653,Taddeusz,Clemmow,tclemmowi4@walmart.com,Male,94213177235
654,Piggy,Yeates,pyeatesi5@storify.com,Male,27.16.221.7
655,Amelia,Braybrook,abraybrooki6@tiny.cc,Female,85.23.2.51
656,Nyssa,Simoes,nsimoesi7@e-recht24.de,Female,93.212.90.3
657,Guido,McGiffin,gmcgiffini8@dailymail.co.uk,Male,4.246.19.90
658,Lionello,Aldcorn,laldcorni9@opera.com,Male,10.72.202.236
659,Grenville,Drummond,gdrummondia@addthis.com,Male,161.149.47.114
660,Lowrance,Michurin,lmichurinib@buzzfeed.com,Male,39105117204
661,Simmonds,Willoughby,swilloughbyic@omniture.com,Male,219.79.170.44
662,Sydelle,Lanon,slanonid@boston.com,Female,6.70.44.76
663,Travers,Treweek,ttreweekie@boston.com,Male,73.68.181.207
664,Kenton,Elmer,kelmerif@cdc.gov,Male,231238217182
665,Sammy,Derham,sderhamig@alibaba.com,Female,137.41.219.22
666,Forrest,Mulles,fmullesih@upenn.edu,Male,223.250.64.38
667,Laural,Barnes,lbarnesii@mail.ru,Female,206171172227
668,Ilario,Porch,iporchij@privacy.gov.au,Male,168191188242
669,Rana,Boyan,rboyanik@yahoo.co.jp,Female,167.2.103.118
670,Myron,Fetters,mfettersil@newsvine.com,Male,91.22.166.214
671,Edith,Marczyk,emarczykim@github.com,Female,89.62.20.22
672,Marrilee,Roelvink,mroelvinkin@csmonitor.com,Female,190204255198
673,Pernell,Gaylard,pgaylardio@squarespace.com,Male,56207238176
674,Alika,Bilbee,abilbeeip@netscape.com,Female,90.95.17.52
675,Essa,Comini,ecominiiq@ycombinator.com,Female,94.100.191.32
676,Cody,Atte-Stone,cattestoneir@eepurl.com,Female,208209251109
677,Henriette,Harken,hharkenis@1688.com,Female,106235251242
678,Holly-anne,Bould,hbouldit@unesco.org,Female,205.154.127.73
679,Thatcher,Polk,tpolkiu@nps.gov,Male,12.90.146.36
680,Mommy,Bravington,mbravingtoniv@naver.com,Female,96175250255
681,Faythe,Tyce,ftyceiw@globo.com,Female,233.89.200.7
682,Marti,Shelf,mshelfix@upenn.edu,Female,41199111111
683,Berke,Tettersell,btetterselliy@w3.org,Male,74.37.84.228
684,Mabel,Gawthorp,mgawthorpiz@ox.ac.uk,Female,98229187251
685,Ransell,Chiechio,rchiechioj0@ucsd.edu,Male,55.109.71.218
686,Stephannie,Pillans,spillansj1@dion.ne.jp,Female,123.97.223.23
687,Herbert,Ingerson,hingersonj2@arizona.edu,Male,247.118.154.18
688,Brooke,Corradini,bcorradinij3@mail.ru,Female,205.152.209.16
689,Dorine,McCaskill,dmccaskillj4@miibeian.gov.cn,Female,227153138197
690,Perren,Woodger,pwoodgerj5@huffingtonpost.com,Male,251.92.37.95
691,Glennis,Mullender,gmullenderj6@vinaora.com,Female,202225212248
692,Alys,Atthow,aatthowj7@youtu.be,Female,23.41.128.92
693,Janka,Graine,jgrainej8@youtu.be,Female,247.196.92.212
694,Aloin,Bunyan,abunyanj9@ucsd.edu,Male,202171214162
695,Matti,Eliasson,meliassonja@photobucket.com,Female,53.217.86.51
696,Krysta,Moran,kmoranjb@liveinternet.ru,Female,30.114.17.130
697,Pavel,MacAnellye,pmacanellyejc@moonfruit.com,Male,237.94.252.25
698,Josee,McGurk,jmcgurkjd@joomla.org,Female,245.246.249.23
699,Gran,Tue,gtueje@oaic.gov.au,Male,142.27.179.213
700,Rozele,Christoffels,rchristoffelsjf@lulu.com,Female,108199222253
701,Stuart,Bartosinski,sbartosinskijg@godaddy.com,Male,110.193.92.223
702,Corinne,Asplin,casplinjh@stumbleupon.com,Female,32.100.143.83
703,Giordano,Kayser,gkayserji@mozilla.com,Male,98.253.0.15
704,Zackariah,Bricket,zbricketjj@parallels.com,Male,140.20.223.214
705,Henryetta,Thacker,hthackerjk@4shared.com,Female,111.169.21.117
706,Tann,Richter,trichterjl@gravatar.com,Male,226.42.28.229
707,Lurette,Duthie,lduthiejm@house.gov,Female,243130119226
708,Tan,Iannetti,tiannettijn@fema.gov,Male,177.100.2.149
709,Trix,Rontree,trontreejo@sciencedirect.com,Female,47.32.237.78
710,Jenelle,Attawell,jattawelljp@ezinearticles.com,Female,75.164.16.238
711,Ced,Walley,cwalleyjq@cloudflare.com,Male,59240172173
712,Sally,Clarkson,sclarksonjr@howstuffworks.com,Female,236.48.54.19
713,Shurlock,Symmons,ssymmonsjs@admin.ch,Male,23.62.107.160
714,Viki,Mullinger,vmullingerjt@simplemachines.org,Female,107.126.4.6
715,Hersh,Girardet,hgirardetju@aol.com,Male,103.75.116.170
716,Valida,Ateridge,vateridgejv@netlog.com,Female,164.83.110.21
717,Ardith,Ferres,aferresjw@msn.com,Female,52.48.51.174
718,Inglebert,Titcombe,ititcombejx@vk.com,Male,239121139179
719,Illa,Dunlea,idunleajy@technorati.com,Female,194.44.96.149
720,Layney,McCafferty,lmccaffertyjz@un.org,Female,35.6.108.8
721,Henrik,Bramwell,hbramwellk0@engadget.com,Male,130.101.188.88
722,Irving,Kaysor,ikaysork1@google.it,Male,160.142.105.86
723,Bond,Besnard,bbesnardk2@dailymotion.com,Male,219212161240
724,Ewart,Kittow,ekittowk3@phpbb.com,Male,46.87.45.119
725,Lionel,Heddan,lheddank4@skype.com,Male,9.97.255.141
726,Rouvin,Gavin,rgavink5@edublogs.org,Male,104.98.172.240
727,Bibby,Terzi,bterzik6@cyberchimps.com,Female,200122105211
728,Sheffy,Tejero,stejerok7@craigslist.org,Male,238.45.136.120
729,Merola,Kittless,mkittlessk8@accuweather.com,Female,91.139.58.78
730,Galina,Townley,gtownleyk9@nyu.edu,Female,252.10.110.138
731,Fawnia,Iozefovich,fiozefovichka@1688.com,Female,142215249208
732,Zackariah,Cotherill,zcotherillkb@prweb.com,Male,201.42.217.159
733,Angus,MacGowan,amacgowankc@twitter.com,Male,67.73.222.38
734,Yolande,Salzberger,ysalzbergerkd@ibm.com,Female,74.232.4.64
735,Antonius,Obbard,aobbardke@netvibes.com,Male,180205154149
736,Aylmar,Mallabund,amallabundkf@unesco.org,Male,78.85.246.78
737,Benyamin,Treswell,btreswellkg@ox.ac.uk,Male,144.139.106.7
738,Virgie,Bolzmann,vbolzmannkh@webmd.com,Female,230.156.58.142
739,Eula,Simcock,esimcockki@cloudflare.com,Female,129.228.183.41
740,Wylie,Castano,wcastanokj@e-recht24.de,Male,133.182.16.49
741,Jeno,Tumielli,jtumiellikk@sitemeter.com,Male,3255192107
742,Cari,Wyldbore,cwyldborekl@de.vu,Female,30.74.198.127
743,Anne-corinne,Whitefoot,awhitefootkm@smh.com.au,Female,88.25.56.99
744,Barnaby,Dulson,bdulsonkn@woothemes.com,Male,162.241.181.80
745,Raven,Hazley,rhazleyko@sakura.ne.jp,Female,19.64.20.124
746,Humberto,Curragh,hcurraghkp@msn.com,Male,27254236170
747,Tarra,Edden,teddenkq@github.com,Female,4255153108
748,Delilah,Magog,dmagogkr@google.ca,Female,177.185.123.27
749,Olimpia,Pecht,opechtks@etsy.com,Female,231.185.60.242
750,Doti,Regorz,dregorzkt@go.com,Female,217247161128
751,Shaina,Clancey,sclanceyku@ucla.edu,Female,79.13.220.179
752,Edsel,Surtees,esurteeskv@hhs.gov,Male,162.203.26.43
753,Mohandas,Jemison,mjemisonkw@noaa.gov,Male,144.47.147.0
754,Fawnia,Oldmeadow,foldmeadowkx@npr.org,Female,164.84.76.8
755,Meridith,Doubrava,mdoubravaky@nature.com,Female,96.236.24.76
756,Shanan,Leirmonth,sleirmonthkz@theatlantic.com,Male,207.215.166.34
757,Sydel,Critchell,scritchelll0@umn.edu,Female,200.219.178.78
758,Lindsay,Gruszczak,lgruszczakl1@google.es,Male,35.8.6.137
759,Horst,Mix,hmixl2@cargocollective.com,Male,29.75.90.255
760,Colas,Brosi,cbrosil3@admin.ch,Male,128175227252
761,Rhianna,Rosten,rrostenl4@fc2.com,Female,148.253.29.21
762,Kurtis,Tooley,ktooleyl5@google.com.br,Male,255155192101
763,Jean,Robillart,jrobillartl6@taobao.com,Male,217170213163
764,Flore,Keightley,fkeightleyl7@purevolume.com,Female,252.198.13.205
765,Michael,Kemston,mkemstonl8@addthis.com,Male,109.82.120.123
766,Casey,Hendrickx,chendrickxl9@yelp.com,Female,26213111194
767,Hector,Splain,hsplainla@hibu.com,Male,140.183.15.120
768,Betty,Glenny,bglennylb@umich.edu,Female,255223100176
769,Adrienne,Hultberg,ahultberglc@wikia.com,Female,66.22.141.170
770,Zak,Brede,zbredeld@imgur.com,Male,204.51.0.12
771,Bryce,Crossfield,bcrossfieldle@blogger.com,Male,166.103.232.98
772,Benni,Kubal,bkuballf@pcworld.com,Female,170.144.124.40
773,Birch,Domegan,bdomeganlg@nsw.gov.au,Male,255.23.2.204
774,Nikolia,Samter,nsamterlh@qq.com,Female,186.178.75.196
775,Eleen,Dallan,edallanli@vinaora.com,Female,106.75.122.85
776,Madlen,Marsie,mmarsielj@slideshare.net,Female,100.142.29.134
777,Bridie,Wogan,bwoganlk@shutterfly.com,Female,88.112.3.133
778,Leone,Ormrod,lormrodll@opera.com,Female,50230158118
779,Yehudit,Nobbs,ynobbslm@studiopress.com,Male,208.209.39.36
780,Douglass,Aindrais,daindraisln@miibeian.gov.cn,Male,179.87.46.82
781,Vinnie,Aldcorne,valdcornelo@usda.gov,Male,60.131.46.63
782,Osgood,Jozwicki,ojozwickilp@sciencedirect.com,Male,228.43.106.171
783,Lazarus,Vasenkov,lvasenkovlq@discovery.com,Male,171147239209
784,Serene,Hargrave,shargravelr@so-net.ne.jp,Female,220.152.36.145
785,Dorian,Gaughan,dgaughanls@msn.com,Female,2.151.86.126
786,Xena,Fallawe,xfallawelt@vistaprint.com,Female,12.222.60.137
787,Catherin,Dinneges,cdinnegeslu@google.ru,Female,157207163132
788,Alastair,Stanbury,astanburylv@yahoo.com,Male,139.121.31.218
789,Flint,Drage,fdragelw@list-manage.com,Male,194.237.215.24
790,Jasen,Valadez,jvaladezlx@clickbank.net,Male,181.161.28.238
791,Edvard,Beddis,ebeddisly@icio.us,Male,18185122110
792,Britte,McGarrie,bmcgarrielz@slate.com,Female,175.43.93.39
793,Brandtr,Tole,btolem0@deliciousdays.com,Male,144.149.87.135
794,Baxie,Dowson,bdowsonm1@nasa.gov,Male,61103136252
795,Maible,Ambroziak,mambroziakm2@sogou.com,Female,218.218.77.183
796,Kora,Raphael,kraphaelm3@moonfruit.com,Female,99.138.72.109
797,Paddie,Melbury,pmelburym4@pcworld.com,Male,110.209.27.95
798,Tait,Ledgister,tledgisterm5@discovery.com,Male,2229210146
799,Mayor,Betteney,mbetteneym6@tripadvisor.com,Male,67255227121
800,Rani,Klugel,rklugelm7@shinystat.com,Female,173.250.26.104
801,Hakeem,Scoggan,hscogganm8@cafepress.com,Male,23155100131
802,Arleta,Ryde,arydem9@mac.com,Female,191.95.191.175
803,Burl,Hardan,bhardanma@xrea.com,Male,36.68.192.251
804,Minette,Coultas,mcoultasmb@marketwatch.com,Female,195.98.158.137
805,Benson,Malkinson,bmalkinsonmc@jimdo.com,Male,92.252.91.121
806,Julietta,Widdocks,jwiddocksmd@ftc.gov,Female,242217146202
807,Tab,Cunnington,tcunningtonme@hibu.com,Male,233141138104
808,Torrey,Radborn,tradbornmf@360.cn,Male,89.241.111.58
809,Orren,Becket,obecketmg@joomla.org,Male,149.86.15.243
810,Kelbee,Rosander,krosandermh@google.it,Male,82252152236
811,Lucine,Yeell,lyeellmi@ftc.gov,Female,143.181.14.167
812,Prentice,Fairy,pfairymj@pagesperso-orange.fr,Male,35250197173
813,Maryanna,Epps,meppsmk@diigo.com,Female,32.249.152.75
814,Viola,Strangeway,vstrangewayml@nps.gov,Female,236.56.42.42
815,Mureil,Allward,mallwardmm@washingtonpost.com,Female,228197100159
816,Adrianne,Gadie,agadiemn@sfgate.com,Female,97.13.222.62
817,Cleavland,Peracco,cperaccomo@nasa.gov,Male,25.61.225.64
818,Lynnette,Enevold,lenevoldmp@dailymotion.com,Female,75.167.111.48
819,Winston,McCrann,wmccrannmq@nymag.com,Male,213.139.23.212
820,Willette,Buggs,wbuggsmr@economist.com,Female,120.133.179.58
821,Magda,Haton,mhatonms@businesswire.com,Female,22.71.171.41
822,Brocky,Addyman,baddymanmt@fastcompany.com,Male,124.28.102.251
823,Collen,Ruffle,crufflemu@hexun.com,Female,99.169.134.77
824,Horatia,Ida,hidamv@theatlantic.com,Female,114.34.220.194
825,Meggy,Spinley,mspinleymw@mail.ru,Female,89.183.218.44
826,Theda,Knapman,tknapmanmx@epa.gov,Female,72117141162
827,Babb,Pavelka,bpavelkamy@fema.gov,Female,132158226154
828,Cordelie,Crampsy,ccrampsymz@blinklist.com,Female,160.165.88.3
829,Stanislas,Gatheridge,sgatheridgen0@salon.com,Male,172208194127
830,Nev,Fortoun,nfortounn1@scientificamerican.com,Male,75.240.118.56
831,Ninette,Sneezem,nsneezemn2@google.cn,Female,172.239.18.168
832,Wyndham,Swannick,wswannickn3@printfriendly.com,Male,74.131.67.43
833,Edvard,Harce,eharcen4@ameblo.jp,Male,164.221.45.54
834,Mose,Adriani,madrianin5@biglobe.ne.jp,Male,253241168210
835,Brenna,Haig,bhaign6@house.gov,Female,225.143.158.71
836,Brade,Rubinsaft,brubinsaftn7@amazonaws.com,Male,162.6.71.119
837,Lianne,Dragoe,ldragoen8@vinaora.com,Female,229.142.82.146
838,Lorrayne,Whymark,lwhymarkn9@wisc.edu,Female,54.90.180.56
839,Devondra,Beecker,dbeeckerna@miibeian.gov.cn,Female,42158164123
840,Douglas,Hackinge,dhackingenb@51.la,Male,25.164.82.13
841,Sid,De la Barre,sdelabarrenc@house.gov,Male,176.131.106.19
842,Washington,Gooden,wgoodennd@craigslist.org,Male,183.214.165.71
843,Arley,De Castri,adecastrine@geocities.com,Male,8.92.160.33
844,Lynnette,Clace,lclacenf@digg.com,Female,127.147.77.152
845,Coletta,Enevoldsen,cenevoldsenng@hatena.ne.jp,Female,88.1.158.220
846,Byran,Shepcutt,bshepcuttnh@last.fm,Male,184.159.250.20
847,Kelila,Gallaway,kgallawayni@qq.com,Female,53.7.188.40
848,Donovan,Aymer,daymernj@symantec.com,Male,132.104.49.225
849,Gherardo,Rookwell,grookwellnk@example.com,Male,138.26.213.254
850,Louie,Shrimpling,lshrimplingnl@godaddy.com,Male,112.96.117.69
851,Dido,Hearne,dhearnenm@bizjournals.com,Female,134.79.167.232
852,Mel,Lamdin,mlamdinnn@opera.com,Female,70.57.206.233
853,Jamison,Bennellick,jbennellickno@house.gov,Male,130.144.83.174
854,Glynnis,Jeskins,gjeskinsnp@gnu.org,Female,98.240.192.48
855,Trixi,Abelevitz,tabelevitznq@symantec.com,Female,171188239
856,Ring,Sheards,rsheardsnr@over-blog.com,Male,62.9.133.202
857,Bryna,Hucklesby,bhucklesbyns@hao123.com,Female,33.177.139.59
858,Moore,Drinan,mdrinannt@about.com,Male,133.238.97.133
859,Oswell,Campes,ocampesnu@hud.gov,Male,4168140167
860,Pauli,Escritt,pescrittnv@paginegialle.it,Female,27158219121
861,Kennie,Noddles,knoddlesnw@howstuffworks.com,Male,139.247.43.88
862,Asher,Cumberland,acumberlandnx@ezinearticles.com,Male,172.159.4.152
863,Stephen,Eshelby,seshelbyny@xrea.com,Male,3.7.155.254
864,Matthus,Mobley,mmobleynz@dion.ne.jp,Male,227.94.154.147
865,Willy,Medhurst,wmedhursto0@npr.org,Female,54.253.37.158
866,Paddy,Healeas,phealeaso1@mapy.cz,Male,33.21.248.104
867,Shaylah,Fricke,sfrickeo2@list-manage.com,Female,183.6.243.111
868,Lew,Gladbeck,lgladbecko3@sciencedirect.com,Male,247238190169
869,Pierrette,Cudde,pcuddeo4@usatoday.com,Female,219.15.234.253
870,Allianora,Farndale,afarndaleo5@princeton.edu,Female,55.11.137.30
871,Demetria,Gosdin,dgosdino6@google.co.uk,Female,231.208.37.176
872,Kirstin,Moynham,kmoynhamo7@cloudflare.com,Female,29.55.97.196
873,Kelvin,Geoghegan,kgeoghegano8@yale.edu,Male,34153136255
874,Alberto,Scutching,ascutchingo9@army.mil,Male,74.160.4.208
875,Daphene,Cotelard,dcotelardoa@businessinsider.com,Female,129.84.116.169
876,Eugene,Zanettini,ezanettiniob@auda.org.au,Male,100.152.254.89
877,Aleda,Leve,aleveoc@sina.com.cn,Female,2.96.69.217
878,Granny,Kennelly,gkennellyod@hexun.com,Male,202.179.240.60
879,Jeremias,Biggar,jbiggaroe@studiopress.com,Male,75.89.10.164
880,Humphrey,Whyborne,hwhyborneof@bloglovin.com,Male,220.66.42.169
881,Angela,Fendt,afendtog@gmpg.org,Female,150.180.30.237
882,Carina,Rodders,croddersoh@cnbc.com,Female,108194147143
883,Dorrie,Beldom,dbeldomoi@vkontakte.ru,Female,38.216.47.32
884,Berkie,Spurgin,bspurginoj@ameblo.jp,Male,250214232191
885,Krissie,Drinkale,kdrinkaleok@msu.edu,Female,29.16.24.131
886,Morganica,Ferreira,mferreiraol@hubpages.com,Female,217.179.196.66
887,Tanny,Flott,tflottom@abc.net.au,Male,107125223130
888,Ilise,Linford,ilinfordon@live.com,Female,214.11.71.96
889,Ashlen,Ottiwill,aottiwilloo@51.la,Female,193.167.141.76
890,Fransisco,Uzzell,fuzzellop@senate.gov,Male,27.133.131.87
891,Elisabet,Hazle,ehazleoq@prlog.org,Female,146.29.64.19
892,Walden,Wisniewski,wwisniewskior@ftc.gov,Male,215.49.43.226
893,Timothy,Bullene,tbulleneos@simplemachines.org,Male,223.253.43.40
894,Selinda,Josovitz,sjosovitzot@howstuffworks.com,Female,107.123.105.1
895,Pete,Willerton,pwillertonou@businessweek.com,Male,118.30.222.130
896,Edna,Slack,eslackov@nytimes.com,Female,200.157.59.33
897,Donalt,Baude,dbaudeow@chicagotribune.com,Male,93182141181
898,Rodie,Jiras,rjirasox@altervista.org,Female,27.245.160.50
899,Celinda,Jeyes,cjeyesoy@home.pl,Female,172182180145
900,Ernestus,Molloy,emolloyoz@about.com,Male,207.235.79.212
901,Zea,Garrand,zgarrandp0@cnbc.com,Female,41.18.183.148
902,Ileane,Innman,iinnmanp1@whitehouse.gov,Female,202156154221
903,Oby,Tuft,otuftp2@de.vu,Male,89.104.34.84
904,Arlin,Bischof,abischofp3@fotki.com,Male,167.215.103.82
905,Kaleb,Dumbar,kdumbarp4@ow.ly,Male,2.67.244.96
906,Neila,Tunuy,ntunuyp5@comsenz.com,Female,70.190.13.52
907,Reinhold,Billett,rbillettp6@dailymotion.com,Male,251.7.71.28
908,Vale,Skitteral,vskitteralp7@nydailynews.com,Male,174.172.23.49
909,Brodie,Rydeard,brydeardp8@ed.gov,Male,231.86.118.74
910,Mic,Oger,mogerp9@harvard.edu,Male,12.3.190.132
911,Bax,Cordy,bcordypa@wikipedia.org,Male,189212248243
912,Aile,Holleran,aholleranpb@hud.gov,Female,123.215.98.22
913,Pace,Gatus,pgatuspc@vkontakte.ru,Male,220.96.44.12
914,Helge,Vere,hverepd@google.pl,Female,167.162.126.29
915,Evangelina,Krikorian,ekrikorianpe@infoseek.co.jp,Female,16131105191
916,Brina,Whiteley,bwhiteleypf@123-reg.co.uk,Female,236.94.134.196
917,Emilia,Sirkett,esirkettpg@sun.com,Female,5.231.229.42
918,Cristin,Pidgeley,cpidgeleyph@pinterest.com,Female,180.180.18.165
919,Lynnet,Antoniutti,lantoniuttipi@cnbc.com,Female,124.186.199.70
920,Verne,Sabatini,vsabatinipj@e-recht24.de,Male,210102183198
921,Ash,Crommett,acrommettpk@rakuten.co.jp,Male,147106204251
922,Philipa,Szwarc,pszwarcpl@deviantart.com,Female,219163160159
923,Ferne,Mattiazzo,fmattiazzopm@omniture.com,Female,184.215.231.24
924,Niles,Hawthorne,nhawthornepn@reference.com,Male,192250132191
925,Flinn,Rittelmeyer,frittelmeyerpo@msu.edu,Male,78.247.180.28
926,Merill,Marciskewski,mmarciskewskipp@dmoz.org,Male,61.132.103.24
927,Kalil,Holwell,kholwellpq@bloglines.com,Male,79.51.3.2
928,Johannes,Scothern,jscothernpr@europa.eu,Male,108.153.183.85
929,Petunia,Gosselin,pgosselinps@trellian.com,Female,21115131144
930,Dalenna,Vaux,dvauxpt@who.int,Female,17255207188
931,Christy,Shulver,cshulverpu@timesonline.co.uk,Male,23.80.8.121
932,Gertrud,McLice,gmclicepv@businesswire.com,Female,146.114.206.15
933,Toddie,Durram,tdurrampw@usnews.com,Male,120.134.30.134
934,Jimmy,Lannin,jlanninpx@com.com,Male,139.150.1.136
935,Letta,Gavin,lgavinpy@furl.net,Female,208195214139
936,Barrie,Crimp,bcrimppz@narod.ru,Male,204.236.142.71
937,Raychel,Tottie,rtottieq0@shareasale.com,Female,18244140106
938,Zacharias,Bickerstaffe,zbickerstaffeq1@pen.io,Male,42206215194
939,Brena,McKilroe,bmckilroeq2@fema.gov,Female,94239226126
940,Gil,Garrioch,ggarriochq3@flickr.com,Male,113.77.184.36
941,Latashia,Denge,ldengeq4@princeton.edu,Female,4.125.39.200
942,Erda,Rubenovic,erubenovicq5@usgs.gov,Female,26.63.92.2
943,Tammie,Imore,timoreq6@google.fr,Male,164.6.199.29
944,Ange,Arends,aarendsq7@cnbc.com,Female,214.51.49.80
945,Thurstan,Thackham,tthackhamq8@salon.com,Male,154.2.57.20
946,Kacey,Duffield,kduffieldq9@chicagotribune.com,Female,200.38.104.179
947,Letitia,Borham,lborhamqa@hexun.com,Female,184183183135
948,Flor,Laundon,flaundonqb@oracle.com,Female,178.157.80.10
949,Erv,Dungee,edungeeqc@elegantthemes.com,Male,177.35.228.35
950,Sean,Moohan,smoohanqd@domainmarket.com,Female,84167159202
951,Katuscha,Fishenden,kfishendenqe@discuz.net,Female,93.22.140.149
952,Verina,Hamfleet,vhamfleetqf@comcast.net,Female,61.206.76.93
953,Stacie,Berkely,sberkelyqg@flickr.com,Female,36.66.212.148
954,Bogey,Arundel,barundelqh@wired.com,Male,253.212.75.100
955,Enid,Kennewell,ekennewellqi@github.io,Female,89.156.56.239
956,Sheri,Esslemont,sesslemontqj@gravatar.com,Female,35.105.186.56
957,Stillman,Mosdall,smosdallqk@yahoo.com,Male,236.116.6.53
958,Marilin,Gagan,mgaganql@geocities.com,Female,244222115254
959,Fransisco,Wegman,fwegmanqm@wsj.com,Male,226.1.89.40
960,Tresa,Gomery,tgomeryqn@shop-pro.jp,Female,52.173.21.23
961,Israel,Leverage,ileverageqo@linkedin.com,Male,218.200.61.219
962,Joann,Bradshaw,jbradshawqp@shop-pro.jp,Female,185.101.77.237
963,Shelton,Killock,skillockqq@bigcartel.com,Male,243.66.52.28
964,Kippie,Baversor,kbaversorqr@sphinn.com,Male,236.25.63.13
965,Laural,Panketh,lpankethqs@scribd.com,Female,97168235241
966,Sadie,Bannister,sbannisterqt@freewebs.com,Female,133227122168
967,Ruthie,Reis,rreisqu@xing.com,Female,184160195117
968,Aurelia,Pratchett,apratchettqv@nsw.gov.au,Female,213.228.199.99
969,Nadeen,Howels,nhowelsqw@cnet.com,Female,154.93.192.151
970,Barri,Fellibrand,bfellibrandqx@dell.com,Male,136.25.192.154
971,Merla,Bogeys,mbogeysqy@soup.io,Female,9.47.5.249
972,Jilleen,Towler,jtowlerqz@deviantart.com,Female,196207223161
973,Stefa,Vernall,svernallr0@globo.com,Female,70240103151
974,Phylis,Blackah,pblackahr1@oracle.com,Female,103.167.11.208
975,Hamlin,Orsman,horsmanr2@sphinn.com,Male,173135128156
976,Corinne,Fruin,cfruinr3@miitbeian.gov.cn,Female,95229210146
977,Denny,Badsworth,dbadsworthr4@com.com,Female,43.238.213.61
978,Madelina,Lillicrop,mlillicropr5@github.com,Female,82160113101
979,Artur,Daly,adalyr6@exblog.jp,Male,25.47.13.24
980,Luci,Astridge,lastridger7@phoca.cz,Female,157.179.95.179
981,Selie,Boutcher,sboutcherr8@techcrunch.com,Female,156243242200
982,Cullen,Eliyahu,celiyahur9@amazon.co.uk,Male,56.208.170.8
983,Michail,Bark,mbarkra@fema.gov,Male,158.13.103.150
984,Marlyn,Berthel,mberthelrb@example.com,Female,207.148.32.233
985,Cherilynn,Bale,cbalerc@drupal.org,Female,194.59.104.249
986,Bradley,Collingham,bcollinghamrd@phpbb.com,Male,237.144.41.15
987,Nettie,Reis,nreisre@paginegialle.it,Female,9.46.248.225
988,Farley,De Carlo,fdecarlorf@yandex.ru,Male,175.158.139.61
989,Inglebert,Brothwell,ibrothwellrg@plala.or.jp,Male,208.25.85.133
990,Lance,O'Meara,lomeararh@un.org,Male,239.47.10.156
991,Jocelin,De Gregoli,jdegregoliri@miibeian.gov.cn,Female,172.169.98.36
992,De,Kropp,dkropprj@webmd.com,Female,130.130.63.77
993,Bailey,Mickan,bmickanrk@bbc.co.uk,Male,67.131.133.95
994,Whitney,Kovalski,wkovalskirl@wsj.com,Female,161.40.27.165
995,Madelyn,Canon,mcanonrm@dailymotion.com,Female,206171197211
996,Irv,Sine,isinern@goo.ne.jp,Male,28.149.43.222
997,Isac,Gozard,igozardro@usgs.gov,Male,95198138227
998,Krista,Leffek,kleffekrp@independent.co.uk,Female,166.35.110.186
999,Kev,Asprey,kaspreyrq@topsy.com,Male,187.107.209.70
1000,Xavier,Linsley,xlinsleyrr@mayoclinic.com,Male,58.22.89.26
